{
    "m_host": "http://65.109.8.98:9000",
    "m_bucket": "gen2", 
    "m_access_key": "minio", 
    "m_secret_key": "m1n10000KEK",
    "m_symlink": "/var/models/blue",
    "m_stage": "blue",
    "m_api_docker": "docker pull 65.109.8.98:55000/api_gw:1",
    "m_knn_docker": "docker pull 65.109.8.98:55000/knn:1",    
    "m_service": "QA"
}